%YAML 1.1
%TAG !u! tag:unity3d.com,2011:
--- !u!114 &-4008621841927925078
MonoBehaviour:
  m_ObjectHideFlags: 3
  m_CorrespondingSourceObject: {fileID: 0}
  m_PrefabInstance: {fileID: 0}
  m_PrefabAsset: {fileID: 0}
  m_GameObject: {fileID: 0}
  m_Enabled: 1
  m_EditorHideFlags: 0
  m_Script: {fileID: 11500000, guid: c01700fd266d6914ababb731e09af2eb, type: 3}
  m_Name: DepthOfField
  m_EditorClassIdentifier: 
  active: 1
  mode:
    m_OverrideState: 1
    m_Value: 2
  gaussianStart:
    m_OverrideState: 0
    m_Value: 10
  gaussianEnd:
    m_OverrideState: 0
    m_Value: 30
  gaussianMaxRadius:
    m_OverrideState: 0
    m_Value: 1
  highQualitySampling:
    m_OverrideState: 0
    m_Value: 0
  focusDistance:
    m_OverrideState: 1
    m_Value: 0.1
  aperture:
    m_OverrideState: 1
    m_Value: 32
  focalLength:
    m_OverrideState: 1
    m_Value: 18
  bladeCount:
    m_OverrideState: 0
    m_Value: 5
  bladeCurvature:
    m_OverrideState: 0
    m_Value: 1
  bladeRotation:
    m_OverrideState: 0
    m_Value: 0
--- !u!114 &11400000
MonoBehaviour:
  m_ObjectHideFlags: 0
  m_CorrespondingSourceObject: {fileID: 0}
  m_PrefabInstance: {fileID: 0}
  m_PrefabAsset: {fileID: 0}
  m_GameObject: {fileID: 0}
  m_Enabled: 1
  m_EditorHideFlags: 0
  m_Script: {fileID: 11500000, guid: d7fd9488000d3734a9e00ee676215985, type: 3}
  m_Name: Global Post-Processing Profile
  m_EditorClassIdentifier: 
  components:
  - {fileID: 3575852958204217785}
  - {fileID: -4008621841927925078}
--- !u!114 &3575852958204217785
MonoBehaviour:
  m_ObjectHideFlags: 3
  m_CorrespondingSourceObject: {fileID: 0}
  m_PrefabInstance: {fileID: 0}
  m_PrefabAsset: {fileID: 0}
  m_GameObject: {fileID: 0}
  m_Enabled: 1
  m_EditorHideFlags: 0
  m_Script: {fileID: 11500000, guid: 899c54efeace73346a0a16faa3afe726, type: 3}
  m_Name: Vignette
  m_EditorClassIdentifier: 
  active: 1
  color:
    m_OverrideState: 1
    m_Value: {r: 0, g: 0, b: 0, a: 1}
  center:
    m_OverrideState: 0
    m_Value: {x: 0.5, y: 0.5}
  intensity:
    m_OverrideState: 1
    m_Value: 0.31
  smoothness:
    m_OverrideState: 1
    m_Value: 0.13
  rounded:
    m_OverrideState: 1
    m_Value: 1
